Advanced Topic Instructions
…
class(dist2_id)

## [1] "data.frame"

## Find the minimun distance between bracken fern and forest pixels
summ_fern_value<- dist2_id %>% 
  group_by(fern) %>% 
  summarise(min = min(value, na.rm = TRUE))
summ_fern_value

## # A tibble: 56 x 2
##    fern       min
##    <fct>    <dbl>
##  1 AG01_B1   87.6
##  2 AG01_B10  57.3
##  3 AG01_B2   87.6
##  4 AG01_B3   84.7
##  5 AG01_B4   98.4
##  6 AG01_B5  101. 
##  7 AG01_B6  109. 
##  8 AG01_B7  109. 
##  9 AG01_B8  123. 
## 10 AG01_B9   63.4
## # ... with 46 more rows

## Rename column name of summ_fern_value dataframe
fernvalue<- summ_fern_value %>% rename(value = min)
fernvalue

## # A tibble: 56 x 2
##    fern     value
##    <fct>    <dbl>
##  1 AG01_B1   87.6
##  2 AG01_B10  57.3
##  3 AG01_B2   87.6
##  4 AG01_B3   84.7
##  5 AG01_B4   98.4
##  6 AG01_B5  101. 
##  7 AG01_B6  109. 
##  8 AG01_B7  109. 
##  9 AG01_B8  123. 
## 10 AG01_B9   63.4
## # ... with 46 more rows
…
## Change column name of dataframe
fernidist3<- fernfdist3 %>% rename(ID_pixel = fern_fdist3)
## Matching using ID_pixel
near_dist3 <- right_join(df,fernidist3, by=c("ID_pixel"))
## Convert dataframe to tibble
dfnear_dist3<- as_tibble(near_dist3)
## Remove duplicated rows from dfnear_dist3 dataframe
dfpixel_dist3 <- distinct(dfnear_dist3, ID_pixel, .keep_all = TRUE)
## Extract x,y coordinates of bracken fern and forest from dfpixel_dist3
dfern_dist3<-df[1:56,10:11]
dforest_dist3<-df[57:96,10:11]
## Extracting x,y coordinates from dfpixel_dist3 to plot the nearest forest pixels to bracken fern patches
dfpixel_dist3

## # A tibble: 68 x 11
##    ID_pixel  Long   Lat ID_veg loc        ndvi  ID.x     z ID.y         x      y
##    <chr>    <dbl> <dbl> <chr>  <chr>     <dbl> <dbl> <dbl> <chr>    <dbl>  <dbl>
##  1 AG01_F5  -79.3 -5.32 forest agua_abl~    NA    75  1719 AG01_~ 691973. 9.41e6
##  2 AG01_F4  -79.3 -5.32 forest agua_abl~    NA    74  1723 AG01_~ 692019. 9.41e6
##  3 AG02_F1  -79.3 -5.32 forest agua_abl~    NA    76  1635 AG02_~ 692472. 9.41e6
##  4 AG02_F3  -79.3 -5.32 forest agua_abl~    NA    77  1630 AG02_~ 692575. 9.41e6
##  5 AG02_F9  -79.3 -5.32 forest agua_abl~    NA    81  1643 AG02_~ 692383. 9.41e6
##  6 PV_F3    -79.3 -5.29 forest pueblo_v~    NA    59  2061 PV_F3  687999. 9.42e6
##  7 PV_F4    -79.3 -5.29 forest pueblo_v~    NA    60  2079 PV_F4  687939. 9.42e6
##  8 SH_F2    -79.3 -5.32 forest shaquita~    NA    84  1594 SH_F2  693340. 9.41e6
##  9 SL_F6    -79.3 -5.30 forest salado       NA    67  2063 SL_F6  688055. 9.41e6
## 10 SL_F4    -79.3 -5.30 forest salado       NA    66  2013 SL_F4  688146. 9.41e6
## # ... with 58 more rows
…
